…
   ```
   # A tibble: 136 x 13
      eegid    mvarpac1   mvarpac2   pli1     pli2     evecs    evals    sFiltMap   netMaps    frex    chans   tfP     tfT    
      <list>   <list>     <list>     <list>   <list>   <list>   <list>   <list>     <list>     <list>  <list>  <list>  <list> 
    1 <named ~ <named li~ <named li~ <named ~ <named ~ <named ~ <named ~ <named li~ <named li~ <named~ <named~ <named~ <named~
    2 <named ~ <named li~ <named li~ <named ~ <named ~ <named ~ <named ~ <named li~ <named li~ <named~ <named~ <named~ <named~
    3 <named ~ <named li~ <named li~ <named ~ <named ~ <named ~ <named ~ <named li~ <named li~ <named~ <named~ <named~ <named~
    4 <named ~ <named li~ <named li~ <named ~ <named ~ <named ~ <named ~ <named li~ <named li~ <named~ <named~ <named~ <named~
    5 <named ~ <named li~ <named li~ <named ~ <named ~ <named ~ <named ~ <named li~ <named li~ <named~ <named~ <named~ <named~
    6 <named ~ <named li~ <named li~ <named ~ <named ~ <named ~ <named ~ <named li~ <named li~ <named~ <named~ <named~ <named~
    7 <named ~ <named li~ <named li~ <named ~ <named ~ <named ~ <named ~ <named li~ <named li~ <named~ <named~ <named~ <named~
    8 <named ~ <named li~ <named li~ <named ~ <named ~ <named ~ <named ~ <named li~ <named li~ <named~ <named~ <named~ <named~
    9 <named ~ <named li~ <named li~ <named ~ <named ~ <named ~ <named ~ <named li~ <named li~ <named~ <named~ <named~ <named~
   10 <named ~ <named li~ <named li~ <named ~ <named ~ <named ~ <named ~ <named li~ <named li~ <named~ <named~ <named~ <named~
   # ... with 126 more rows
   ```

   6. **mutate(eegid = unlist(eegid)):** we explicitly extract the ID field from a list to prepare for the next steps.

   ```
   # A tibble: 136 x 13
      eegid   mvarpac1    mvarpac2    pli1     pli2     evecs    evals    sFiltMap   netMaps   frex    chans   tfP     tfT    
      <chr>   <list>      <list>      <list>   <list>   <list>   <list>   <list>     <list>    <list>  <list>  <list>  <list> 
    1 D0079_~ <named lis~ <named lis~ <named ~ <named ~ <named ~ <named ~ <named li~ <named l~ <named~ <named~ <named~ <named~
    2 D0099_~ <named lis~ <named lis~ <named ~ <named ~ <named ~ <named ~ <named li~ <named l~ <named~ <named~ <named~ <named~
    3 D0101_~ <named lis~ <named lis~ <named ~ <named ~ <named ~ <named ~ <named li~ <named l~ <named~ <named~ <named~ <named~
    4 D0148_~ <named lis~ <named lis~ <named ~ <named ~ <named ~ <named ~ <named li~ <named l~ <named~ <named~ <named~ <named~
    5 D0179_~ <named lis~ <named lis~ <named ~ <named ~ <named ~ <named ~ <named li~ <named l~ <named~ <named~ <named~ <named~
    6 D0199_~ <named lis~ <named lis~ <named ~ <named ~ <named ~ <named ~ <named li~ <named l~ <named~ <named~ <named~ <named~
    7 D0221_~ <named lis~ <named lis~ <named ~ <named ~ <named ~ <named ~ <named li~ <named l~ <named~ <named~ <named~ <named~
    8 D0272_~ <named lis~ <named lis~ <named ~ <named ~ <named ~ <named ~ <named li~ <named l~ <named~ <named~ <named~ <named~
    9 D0339_~ <named lis~ <named lis~ <named ~ <named ~ <named ~ <named ~ <named li~ <named l~ <named~ <named~ <named~ <named~
   10 D0366_~ <named lis~ <named lis~ <named ~ <named ~ <named ~ <named ~ <named li~ <named l~ <named~ <named~ <named~ <named~
   # ... with 126 more rows
   ```
…
